----------------------------ROUND STARTS------------------------------------
nishant as ORDER: 100
Timers ORDER: 60.000, CHAOS: -976.814
jeetu as ORDER: 100
Timers ORDER: 60.000, CHAOS: -942.506
----------------------------ROUND ENDS------------------------------------
----------------------------ROUND STARTS------------------------------------
nishant as ORDER: 100
Timers ORDER: 60.000, CHAOS: -1005.101
----------------------------ROUND STARTS------------------------------------
nishant as ORDER: 22
Timers ORDER: 59.967, CHAOS: 59.864
jeetu as ORDER: 41
Timers ORDER: 59.966, CHAOS: 59.863
----------------------------ROUND ENDS------------------------------------
----------------------------ROUND STARTS------------------------------------
jeetu as ORDER: 12
Timers ORDER: 59.965, CHAOS: 57.483
nishant as ORDER: 76
Timers ORDER: 38.786, CHAOS: 59.864
----------------------------ROUND ENDS------------------------------------
----------------------------ROUND STARTS------------------------------------
----------------------------ROUND STARTS------------------------------------
jeetu as ORDER: 31
Timers ORDER: 59.966, CHAOS: 43.425
nishant as ORDER: 60
Timers ORDER: 5.163, CHAOS: 59.864
----------------------------ROUND ENDS------------------------------------
----------------------------ROUND STARTS------------------------------------
jeetu as ORDER: 21
Timers ORDER: 59.967, CHAOS: 58.799
nishant as ORDER: 58
Timers ORDER: 58.672, CHAOS: 59.866
----------------------------ROUND ENDS------------------------------------
----------------------------ROUND STARTS------------------------------------
jeetu as ORDER: 69
Timers ORDER: 59.143, CHAOS: 59.866
nishant as ORDER: 23
Timers ORDER: 59.969, CHAOS: 59.059
----------------------------ROUND ENDS------------------------------------
----------------------------ROUND STARTS------------------------------------
nishant as ORDER: 20
Timers ORDER: 59.967, CHAOS: 59.175
jeetu as ORDER: 56
Timers ORDER: 59.169, CHAOS: 59.866
----------------------------ROUND ENDS------------------------------------
----------------------------ROUND STARTS------------------------------------
jeetu as ORDER: 20
Timers ORDER: 59.968, CHAOS: 59.106
nishant as ORDER: 59
Timers ORDER: 59.155, CHAOS: 59.866
----------------------------ROUND ENDS------------------------------------
----------------------------ROUND STARTS------------------------------------
jeetu as ORDER: 60
Timers ORDER: 59.538, CHAOS: 58.984
nishant as ORDER: 54
Timers ORDER: 59.417, CHAOS: 58.973
----------------------------ROUND ENDS------------------------------------
----------------------------ROUND STARTS------------------------------------
jeetu as ORDER: 41
Timers ORDER: 59.422, CHAOS: 58.961
nishant as ORDER: 52
Timers ORDER: 59.588, CHAOS: 58.923
----------------------------ROUND ENDS------------------------------------
----------------------------ROUND STARTS------------------------------------
jeetu as ORDER: 100
Timers ORDER: 60.000, CHAOS: -1005.101
----------------------------ROUND STARTS------------------------------------
jeetu as ORDER: 37
Timers ORDER: 59.967, CHAOS: 39.487
nishant as ORDER: 63
Timers ORDER: 41.469, CHAOS: 59.866
----------------------------ROUND ENDS------------------------------------
----------------------------ROUND STARTS------------------------------------
jeetu as ORDER: 29
Timers ORDER: 59.966, CHAOS: 59.864
nishant as ORDER: 27
Timers ORDER: 59.966, CHAOS: 59.865
----------------------------ROUND ENDS------------------------------------
----------------------------ROUND STARTS------------------------------------
jeetu as ORDER: 69
Timers ORDER: 42.574, CHAOS: 59.865
nishant as ORDER: 31
Timers ORDER: 59.966, CHAOS: 43.532
----------------------------ROUND ENDS------------------------------------
----------------------------ROUND STARTS------------------------------------
jeetu as ORDER: 33
Timers ORDER: 59.965, CHAOS: 39.483
nishant as ORDER: 55
Timers ORDER: 43.224, CHAOS: 59.864
----------------------------ROUND ENDS------------------------------------
----------------------------ROUND STARTS------------------------------------
jeetu as ORDER: 66
Timers ORDER: 44.411, CHAOS: 59.865
nishant as ORDER: 100
Timers ORDER: 59.998, CHAOS: -1005.816
----------------------------ROUND ENDS------------------------------------
----------------------------ROUND STARTS------------------------------------
jeetu as ORDER: 35
Timers ORDER: 59.967, CHAOS: 59.864
nishant as ORDER: 33
Timers ORDER: 59.965, CHAOS: 59.861
----------------------------ROUND ENDS------------------------------------
----------------------------ROUND STARTS------------------------------------
Jeetu as ORDER: 74
Timers ORDER: 39.707, CHAOS: 59.865
nishant as ORDER: 13
Timers ORDER: 59.967, CHAOS: 57.382
----------------------------ROUND ENDS------------------------------------
----------------------------ROUND STARTS------------------------------------
nishant as ORDER: 16
Timers ORDER: 59.966, CHAOS: 57.486
Jeetu as ORDER: 67
Timers ORDER: 41.859, CHAOS: 59.865
----------------------------ROUND ENDS------------------------------------
----------------------------ROUND STARTS------------------------------------
Jeetu as ORDER: 0
Timers ORDER: -1005.001, CHAOS: 59.898
nishant as ORDER: 100
Timers ORDER: 60.000, CHAOS: -1005.101
----------------------------ROUND ENDS------------------------------------
----------------------------ROUND STARTS------------------------------------
Jeetu as ORDER: 76
Timers ORDER: 40.175, CHAOS: 59.864
Nishant as ORDER: 21
Timers ORDER: 59.966, CHAOS: 57.604
----------------------------ROUND ENDS------------------------------------
----------------------------ROUND STARTS------------------------------------
Nishant as ORDER: 14
Timers ORDER: 59.967, CHAOS: 57.426
Jeetu as ORDER: 65
Timers ORDER: 41.064, CHAOS: 59.863
----------------------------ROUND ENDS------------------------------------
----------------------------ROUND STARTS------------------------------------
Jeetu as ORDER: 0
Timers ORDER: -949.261, CHAOS: 59.898
Nishant as ORDER: 100
Timers ORDER: 60.000, CHAOS: -1005.101
----------------------------ROUND ENDS------------------------------------
----------------------------ROUND STARTS------------------------------------
Jeetu as ORDER: 58
Timers ORDER: 18.495, CHAOS: 59.864
Nishant as ORDER: 22
Timers ORDER: 59.966, CHAOS: 56.400
----------------------------ROUND ENDS------------------------------------
----------------------------ROUND STARTS------------------------------------
Nishant as ORDER: 100
Timers ORDER: 60.000, CHAOS: -1005.101
Jeetu as ORDER: 0
Timers ORDER: -1005.001, CHAOS: 59.898
----------------------------ROUND ENDS------------------------------------
----------------------------ROUND STARTS------------------------------------
Nishant as ORDER: 26
Timers ORDER: 59.965, CHAOS: 23.069
Jeetu as ORDER: 67
Timers ORDER: 13.697, CHAOS: 59.865
----------------------------ROUND ENDS------------------------------------
----------------------------ROUND STARTS------------------------------------
Nishant as ORDER: 27
Timers ORDER: 59.968, CHAOS: 33.726
Jeetu as ORDER: 69
Timers ORDER: 21.642, CHAOS: 59.864
----------------------------ROUND ENDS------------------------------------
----------------------------ROUND STARTS------------------------------------
Nishant as ORDER: 41
Timers ORDER: 59.966, CHAOS: 27.031
Jeetu as ORDER: 52
Timers ORDER: 16.850, CHAOS: 59.865
----------------------------ROUND ENDS------------------------------------
----------------------------ROUND STARTS------------------------------------
Nishant as ORDER: 8
Timers ORDER: 59.967, CHAOS: 23.464
Jeetu as ORDER: 50
Timers ORDER: 20.519, CHAOS: 59.866
----------------------------ROUND ENDS------------------------------------
----------------------------ROUND STARTS------------------------------------
Jeetu as ORDER: 55
Timers ORDER: 17.320, CHAOS: 59.864
Nishant as ORDER: 17
Timers ORDER: 59.967, CHAOS: 40.897
----------------------------ROUND ENDS------------------------------------
----------------------------ROUND STARTS------------------------------------
Nishant as ORDER: 29
Timers ORDER: 59.967, CHAOS: 26.269
Jeetu as ORDER: 44
Timers ORDER: 16.903, CHAOS: 59.866
----------------------------ROUND ENDS------------------------------------
----------------------------ROUND STARTS------------------------------------
Nishant as ORDER: 16
Timers ORDER: 59.966, CHAOS: 46.345
Jeetu as ORDER: 65
Timers ORDER: 33.210, CHAOS: 59.865
----------------------------ROUND ENDS------------------------------------
----------------------------ROUND STARTS------------------------------------
Nishant as ORDER: 22
Timers ORDER: 59.966, CHAOS: 43.038
Jeetu as ORDER: 68
Timers ORDER: 32.312, CHAOS: 59.864
----------------------------ROUND ENDS------------------------------------
----------------------------ROUND STARTS------------------------------------
Nishant as ORDER: 43
Timers ORDER: 46.388, CHAOS: 44.054
Jeetu as ORDER: 42
Timers ORDER: 37.235, CHAOS: 57.417
----------------------------ROUND ENDS------------------------------------
----------------------------ROUND STARTS------------------------------------
----------------------------ROUND STARTS------------------------------------
----------------------------ROUND STARTS------------------------------------
----------------------------ROUND STARTS------------------------------------
Nishant as ORDER: 47
Timers ORDER: 41.733, CHAOS: 39.440
Jeetu as ORDER: 47
Timers ORDER: 31.844, CHAOS: 57.273
----------------------------ROUND ENDS------------------------------------
----------------------------ROUND STARTS------------------------------------
Nishant as ORDER: 47
Timers ORDER: 41.532, CHAOS: 39.435
Jeetu as ORDER: 47
Timers ORDER: 30.858, CHAOS: 57.046
----------------------------ROUND ENDS------------------------------------
----------------------------ROUND STARTS------------------------------------
Nishant as ORDER: 51
Timers ORDER: 44.373, CHAOS: 20.604
Jeetu as ORDER: 35
Timers ORDER: 25.103, CHAOS: 57.328
----------------------------ROUND ENDS------------------------------------
----------------------------ROUND STARTS------------------------------------
Nishant as ORDER: 51
Timers ORDER: 44.252, CHAOS: 20.828
Jeetu as ORDER: 47
Timers ORDER: 32.032, CHAOS: 57.301
----------------------------ROUND ENDS------------------------------------
----------------------------ROUND STARTS------------------------------------
Nishant as ORDER: 56
Timers ORDER: 55.813, CHAOS: 31.684
Jeetu as ORDER: 36
Timers ORDER: 28.757, CHAOS: 58.318
----------------------------ROUND ENDS------------------------------------
----------------------------ROUND STARTS------------------------------------
Jeetu as ORDER: 36
Timers ORDER: 31.850, CHAOS: 58.322
Nishant as ORDER: 56
Timers ORDER: 55.878, CHAOS: 30.079
----------------------------ROUND ENDS------------------------------------
----------------------------ROUND STARTS------------------------------------
Nishant as ORDER: 60
Timers ORDER: 55.244, CHAOS: 38.073
Jeetu as ORDER: 39
Timers ORDER: 52.463, CHAOS: 58.602
----------------------------ROUND ENDS------------------------------------
----------------------------ROUND STARTS------------------------------------
Jeetu as ORDER: 39
Timers ORDER: 52.545, CHAOS: 58.612
Nishant as ORDER: 39
Timers ORDER: 56.075, CHAOS: 52.748
----------------------------ROUND ENDS------------------------------------
----------------------------ROUND STARTS------------------------------------
Jeetu as ORDER: 45
Timers ORDER: 52.012, CHAOS: 57.948
Nishant as ORDER: 51
Timers ORDER: 53.734, CHAOS: 57.335
----------------------------ROUND ENDS------------------------------------
----------------------------ROUND STARTS------------------------------------
Nishant as ORDER: 58
Timers ORDER: 51.799, CHAOS: 57.795
Jeetu as ORDER: 0
Timers ORDER: -1011.933, CHAOS: 57.836
----------------------------ROUND ENDS------------------------------------
----------------------------ROUND STARTS------------------------------------
Nishant as ORDER: 58
Timers ORDER: 51.699, CHAOS: 57.736
Jeetu as ORDER: 0
Timers ORDER: -1011.780, CHAOS: 57.909
----------------------------ROUND ENDS------------------------------------
----------------------------ROUND STARTS------------------------------------
Nishant as ORDER: 100
Timers ORDER: 59.996, CHAOS: -1006.167
Jeetu as ORDER: 11
Timers ORDER: 59.902, CHAOS: 58.041
----------------------------ROUND ENDS------------------------------------
----------------------------ROUND STARTS------------------------------------
Nishant as ORDER: 39
Timers ORDER: 53.868, CHAOS: 57.966
Jeetu as ORDER: 39
Timers ORDER: 53.801, CHAOS: 58.019
----------------------------ROUND ENDS------------------------------------
----------------------------ROUND STARTS------------------------------------
Nishant as ORDER: 39
Timers ORDER: 53.876, CHAOS: 57.831
Jeetu as ORDER: 0
Timers ORDER: -1011.879, CHAOS: 57.955
----------------------------ROUND ENDS------------------------------------
----------------------------ROUND STARTS------------------------------------
Nishant as ORDER: 39
Timers ORDER: 53.879, CHAOS: 57.971
----------------------------ROUND STARTS------------------------------------
Jeetu as ORDER: 0
Timers ORDER: -1012.100, CHAOS: 57.905
Nishant as ORDER: 39
Timers ORDER: 53.828, CHAOS: 57.920
----------------------------ROUND ENDS------------------------------------
----------------------------ROUND STARTS------------------------------------
Nishant as ORDER: 39
Timers ORDER: 53.879, CHAOS: 57.965
----------------------------ROUND STARTS------------------------------------
Jeetu as ORDER: 0
Timers ORDER: -1011.994, CHAOS: 57.959
Nishant as ORDER: 100
Timers ORDER: 60.000, CHAOS: -1003.900
----------------------------ROUND ENDS------------------------------------
----------------------------ROUND STARTS------------------------------------
----------------------------ROUND STARTS------------------------------------
Jeetu as ORDER: 39
Timers ORDER: 53.769, CHAOS: 58.030
Nishant as ORDER: 39
Timers ORDER: 53.878, CHAOS: 57.869
----------------------------ROUND ENDS------------------------------------
----------------------------ROUND STARTS------------------------------------
Jeetu as ORDER: 39
Timers ORDER: 53.768, CHAOS: 58.020
Nishant as ORDER: 58
Timers ORDER: 51.700, CHAOS: 57.649
----------------------------ROUND ENDS------------------------------------
----------------------------ROUND STARTS------------------------------------
Jeetu as ORDER: 39
Timers ORDER: 53.848, CHAOS: 57.938
Nishant as ORDER: 39
Timers ORDER: 53.879, CHAOS: 57.878
----------------------------ROUND ENDS------------------------------------
----------------------------ROUND STARTS------------------------------------
Jeetu as ORDER: 39
Timers ORDER: 53.671, CHAOS: 57.866
Nishant as ORDER: 51
Timers ORDER: 53.733, CHAOS: 57.734
----------------------------ROUND ENDS------------------------------------
----------------------------ROUND STARTS------------------------------------
----------------------------ROUND STARTS------------------------------------
Jeetu as ORDER: 39
Timers ORDER: 53.768, CHAOS: 58.035
Nishant as ORDER: 51
Timers ORDER: 53.736, CHAOS: 57.765
----------------------------ROUND ENDS------------------------------------
----------------------------ROUND STARTS------------------------------------
Jeetu as ORDER: 39
Timers ORDER: 53.820, CHAOS: 58.018
Nishant as ORDER: 40
Timers ORDER: 53.382, CHAOS: 57.826
----------------------------ROUND ENDS------------------------------------
----------------------------ROUND STARTS------------------------------------
----------------------------ROUND STARTS------------------------------------
Jeetu as ORDER: 39
Timers ORDER: 53.773, CHAOS: 58.070
Nishant as ORDER: 40
Timers ORDER: 53.433, CHAOS: 57.835
----------------------------ROUND ENDS------------------------------------
----------------------------ROUND STARTS------------------------------------
Jeetu as ORDER: 39
Timers ORDER: 53.820, CHAOS: 57.937
Nishant as ORDER: 40
Timers ORDER: 53.428, CHAOS: 57.805
----------------------------ROUND ENDS------------------------------------
----------------------------ROUND STARTS------------------------------------
Jeetu as ORDER: 39
Timers ORDER: 53.823, CHAOS: 58.031
Nishant as ORDER: 40
Timers ORDER: 53.429, CHAOS: 57.754
----------------------------ROUND ENDS------------------------------------
----------------------------ROUND STARTS------------------------------------
Jeetu as ORDER: 39
Timers ORDER: 53.775, CHAOS: 58.058
Nishant as ORDER: 40
Timers ORDER: 53.480, CHAOS: 57.831
----------------------------ROUND ENDS------------------------------------
----------------------------ROUND STARTS------------------------------------
Jeetu as ORDER: 48
Timers ORDER: 50.510, CHAOS: 57.791
Nishant as ORDER: 40
Timers ORDER: 53.313, CHAOS: 57.654
----------------------------ROUND ENDS------------------------------------
----------------------------ROUND STARTS------------------------------------
Jeetu as ORDER: 43
Timers ORDER: 54.956, CHAOS: 58.059
Nishant as ORDER: 48
Timers ORDER: 51.778, CHAOS: 57.200
----------------------------ROUND ENDS------------------------------------
----------------------------ROUND STARTS------------------------------------
Jeetu as ORDER: 43
Timers ORDER: 55.017, CHAOS: 58.145
Nishant as ORDER: 43
Timers ORDER: 55.129, CHAOS: 57.910
----------------------------ROUND ENDS------------------------------------
----------------------------ROUND STARTS------------------------------------
Jeetu as ORDER: 43
Timers ORDER: 55.007, CHAOS: 58.052
Nishant as ORDER: 48
Timers ORDER: 52.782, CHAOS: 57.750
----------------------------ROUND ENDS------------------------------------
----------------------------ROUND STARTS------------------------------------
Jeetu as ORDER: 43
Timers ORDER: 56.726, CHAOS: 58.598
Nishant as ORDER: 48
Timers ORDER: 55.280, CHAOS: 58.468
----------------------------ROUND ENDS------------------------------------
----------------------------ROUND STARTS------------------------------------
Jeetu as ORDER: 43
Timers ORDER: 56.803, CHAOS: 58.651
Nishant as ORDER: 48
Timers ORDER: 55.256, CHAOS: 58.439
----------------------------ROUND ENDS------------------------------------
----------------------------ROUND STARTS------------------------------------
Jeetu as ORDER: 43
Timers ORDER: 56.690, CHAOS: 58.681
Nishant as ORDER: 48
Timers ORDER: 55.221, CHAOS: 58.470
----------------------------ROUND ENDS------------------------------------
----------------------------ROUND STARTS------------------------------------
Jeetu as ORDER: 43
Timers ORDER: 56.795, CHAOS: 58.669
Nishant as ORDER: 47
Timers ORDER: 56.388, CHAOS: 58.567
----------------------------ROUND ENDS------------------------------------
----------------------------ROUND STARTS------------------------------------
Jeetu as ORDER: 43
Timers ORDER: 56.671, CHAOS: 56.623
Nishant as ORDER: 47
Timers ORDER: 56.345, CHAOS: 58.466
----------------------------ROUND ENDS------------------------------------
----------------------------ROUND STARTS------------------------------------
Jeetu as ORDER: 43
Timers ORDER: 55.020, CHAOS: 58.110
Nishant as ORDER: 48
Timers ORDER: 52.736, CHAOS: 57.736
----------------------------ROUND ENDS------------------------------------
----------------------------ROUND STARTS------------------------------------
Jeetu as ORDER: 43
Timers ORDER: 54.921, CHAOS: 58.088
Nishant as ORDER: 49
Timers ORDER: 52.523, CHAOS: 58.586
----------------------------ROUND ENDS------------------------------------
----------------------------ROUND STARTS------------------------------------
Jeetu as ORDER: 43
Timers ORDER: 54.920, CHAOS: 58.095
Nishant as ORDER: 49
Timers ORDER: 52.274, CHAOS: 58.591
----------------------------ROUND ENDS------------------------------------
----------------------------ROUND STARTS------------------------------------
Jeetu as ORDER: 43
Timers ORDER: 55.072, CHAOS: 58.125
Nishant as ORDER: 49
Timers ORDER: 52.532, CHAOS: 58.601
----------------------------ROUND ENDS------------------------------------
----------------------------ROUND STARTS------------------------------------
Jeetu as ORDER: 0
Timers ORDER: -984.602, CHAOS: 58.933
Nishant as ORDER: 100
Timers ORDER: 60.000, CHAOS: -940.183
----------------------------ROUND ENDS------------------------------------
----------------------------ROUND STARTS------------------------------------
Jeetu as ORDER: 43
Timers ORDER: 55.051, CHAOS: 58.087
Nishant as ORDER: 49
Timers ORDER: 52.623, CHAOS: 57.200
----------------------------ROUND ENDS------------------------------------
----------------------------ROUND STARTS------------------------------------
Jeetu as ORDER: 43
Timers ORDER: 55.004, CHAOS: 58.146
Nishant as ORDER: 45
Timers ORDER: 53.850, CHAOS: 57.166
----------------------------ROUND ENDS------------------------------------
----------------------------ROUND STARTS------------------------------------
Jeetu as ORDER: 43
Timers ORDER: 54.766, CHAOS: 58.060
Nishant as ORDER: 45
Timers ORDER: 53.990, CHAOS: 57.188
----------------------------ROUND ENDS------------------------------------
----------------------------ROUND STARTS------------------------------------
Nishant as ORDER: 48
Timers ORDER: 50.618, CHAOS: 56.773
Jeetu as ORDER: 43
Timers ORDER: 55.008, CHAOS: 58.095
----------------------------ROUND ENDS------------------------------------
----------------------------ROUND STARTS------------------------------------
Nishant as ORDER: 45
Timers ORDER: 56.105, CHAOS: 58.063
Jeetu as ORDER: 43
Timers ORDER: 56.720, CHAOS: 58.689
----------------------------ROUND ENDS------------------------------------
----------------------------ROUND STARTS------------------------------------
Nishant as ORDER: 48
Timers ORDER: 54.045, CHAOS: 35.391
Jeetu as ORDER: 43
Timers ORDER: 56.745, CHAOS: 58.651
----------------------------ROUND ENDS------------------------------------
----------------------------ROUND STARTS------------------------------------
----------------------------ROUND STARTS------------------------------------
Jeetu as ORDER: 43
Timers ORDER: 56.740, CHAOS: 58.679
Nishant as ORDER: 43
Timers ORDER: 56.852, CHAOS: 45.012
----------------------------ROUND ENDS------------------------------------
----------------------------ROUND STARTS------------------------------------
Jeetu as ORDER: 43
Timers ORDER: 56.738, CHAOS: 58.677
Nishant as ORDER: 43
Timers ORDER: 56.091, CHAOS: 44.364
----------------------------ROUND ENDS------------------------------------
----------------------------ROUND STARTS------------------------------------
Nishant as ORDER: 100
Timers ORDER: 60.000, CHAOS: -1005.101
Jeetu as ORDER: 0
Timers ORDER: -1005.001, CHAOS: 59.133
----------------------------ROUND ENDS------------------------------------
----------------------------ROUND STARTS------------------------------------
Nishant as ORDER: 43
Timers ORDER: 56.069, CHAOS: 44.262
Jeetu as ORDER: 57
Timers ORDER: 46.233, CHAOS: 58.629
----------------------------ROUND ENDS------------------------------------
----------------------------ROUND STARTS------------------------------------
Nishant as ORDER: 100
Timers ORDER: 58.538, CHAOS: -12.543
Jeetu as ORDER: 57
Timers ORDER: 41.909, CHAOS: 57.965
----------------------------ROUND ENDS------------------------------------
----------------------------ROUND STARTS------------------------------------
Nishant as ORDER: 43
Timers ORDER: 56.078, CHAOS: 21.621
Jeetu as ORDER: 57
Timers ORDER: 46.134, CHAOS: 58.560
----------------------------ROUND ENDS------------------------------------
----------------------------ROUND STARTS------------------------------------
Nishant as ORDER: 43
Timers ORDER: 56.074, CHAOS: 21.619
Jeetu as ORDER: 0
Timers ORDER: -14.546, CHAOS: 59.200
----------------------------ROUND ENDS------------------------------------
----------------------------ROUND STARTS------------------------------------
Nishant as ORDER: 48
Timers ORDER: 55.884, CHAOS: 38.854
Jeetu as ORDER: 0
Timers ORDER: -26.887, CHAOS: 58.970
----------------------------ROUND ENDS------------------------------------
----------------------------ROUND STARTS------------------------------------
Nishant as ORDER: 100
Timers ORDER: 55.754, CHAOS: -0.385
Jeetu as ORDER: 22
Timers ORDER: 41.884, CHAOS: 57.775
----------------------------ROUND ENDS------------------------------------
----------------------------ROUND STARTS------------------------------------
Nishant as ORDER: 43
Timers ORDER: 54.231, CHAOS: 37.516
Jeetu as ORDER: 57
Timers ORDER: 34.824, CHAOS: 57.849
----------------------------ROUND ENDS------------------------------------
----------------------------ROUND STARTS------------------------------------
Nishant as ORDER: 43
Timers ORDER: 55.663, CHAOS: 9.243
Jeetu as ORDER: 57
Timers ORDER: 46.183, CHAOS: 58.576
----------------------------ROUND ENDS------------------------------------
----------------------------ROUND STARTS------------------------------------
Jeetu as ORDER: 57
Timers ORDER: 46.188, CHAOS: 58.623
Nishant as ORDER: 43
Timers ORDER: 56.075, CHAOS: 21.522
----------------------------ROUND ENDS------------------------------------
----------------------------ROUND STARTS------------------------------------
Jeetu as ORDER: 57
Timers ORDER: 46.238, CHAOS: 58.614
Nishant as ORDER: 43
Timers ORDER: 56.069, CHAOS: 21.370
----------------------------ROUND ENDS------------------------------------
